#,,,,"generated_by='OpenQuake engine 3.7.1', start_date='2019-12-06T14:50:46', checksum=1635719306, investigation_time=1.0, risk_investigation_time=1.0"
loss_type,taxonomy,loss_value,exposed_value,loss_ratio
nonstructural,ADB,3.84344E+08,7.58756E+09,5.06545E-02
nonstructural,M23,1.69065E+09,1.21225E+11,1.39463E-02
nonstructural,RC1,3.12064E+08,9.82875E+10,3.17502E-03
nonstructural,RC2,1.69711E+08,5.13923E+10,3.30226E-03
nonstructural,RC3,1.12002E+08,1.50551E+10,7.43946E-03
nonstructural,ST1,2.19920E+08,6.76937E+10,3.24875E-03
nonstructural,ST2,2.53987E+08,6.32520E+10,4.01548E-03
nonstructural,ST3,1.92883E+08,3.63293E+10,5.30930E-03
structural,ADB,1.81133E+06,1.13247E+08,1.59945E-02
structural,M23,6.61974E+06,9.25384E+08,7.15350E-03
structural,RC1,2.62964E+05,3.55404E+08,7.39902E-04
structural,RC2,2.35268E+05,2.30374E+08,1.02124E-03
structural,RC3,2.97700E+05,8.27499E+07,3.59759E-03
structural,ST1,1.09698E+05,2.43579E+08,4.50360E-04
structural,ST2,4.76645E+05,2.79851E+08,1.70321E-03
structural,ST3,4.93580E+05,1.96384E+08,2.51335E-03
